Untitled
…
## # A tibble: 1 x 1
##    count
##    <int>
## 1 180424

data_error_par_taxon <- donnees_longues %>%
  filter(resultat == "DATA_ERROR") %>%
  group_by(taxon_id) %>%
  summarise(count = n()) %>%
  ungroup()
print(data_error_par_taxon)

## # A tibble: 737 x 2
##    taxon_id count
##    <chr>    <int>
##  1 1069623      1
##  2 1069624      1
##  3 1069626      2
##  4 1069627      2
##  5 1069628      1
##  6 1079901     13
##  7 108619      52
##  8 1087440     21
##  9 1087441     23
## 10 1087443     23
## # i 727 more rows
