Analyses
…
## # A tibble: 1 x 1
##    count
##    <int>
## 1 155524

Tableau présentant le nombre de DATA_ERROR par taxon_ID

data_error_par_taxon <- all_data %>%
  filter(resultat == "DATA_ERROR") %>%
  group_by(taxon_id) %>%
  summarise(count = n()) %>%
  ungroup()
print(data_error_par_taxon)

## # A tibble: 554 x 2
##    taxon_id count
##       <dbl> <int>
##  1      195   174
##  2      197     6
##  3      287   138
##  4      470  1470
##  5      485 25906
##  6      487    17
##  7      545     4
##  8      546     5
##  9      548   608
## 10      550  7096
## # i 544 more rows
…
